INDEX VERSION 1.127+C:\Users\Mikk\Desktop\Kool201516\JavaKursus\Praktikumid\.metadata\.plugins\org.eclipse.jdt.core
1711765710.index
1801596798.index
2591297871.index
2664259167.index
1094395942.index
2639584581.index
199420512.index
3371159263.index
1737343993.index
1000147613.index
4070956152.index
2674475739.index
3916428639.index
1738363733.index
890233325.index
2921250600.index
766596693.index
1063367808.index
1524953806.index
3972726963.index
